<?xml version="1.0" encoding="utf-8"?>
<svg xmlns="http://www.w3.org/2000/svg" viewBox="-230 -178 83 84" width="64" height="64">
<path fill="#444" transform="scale(-1)" d="M223.335,101.665c1.348-1.348,1.348-3.533,0-4.881c-1.348-1.349-3.533-1.349-4.881,0l-6.846,6.846 c1.188,2.115,2.18,4.398,2.951,6.811L223.335,101.665z M153.08,142.685c-1.349,1.348-1.349,3.533,0,4.883 c1.347,1.347,3.533,1.347,4.882,0l6.102-6.102c-1.189-2.114-2.182-4.398-2.953-6.812L153.08,142.685z M214.739,134.089 c-0.738,2.441-1.708,4.748-2.871,6.893l6.585,6.586c1.349,1.347,3.534,1.347,4.882,0c1.348-1.35,1.348-3.535,0-4.883 L214.739,134.089z M216.428,122.547c0,1.205-0.054,2.396-0.157,3.568h9.559c1.906,0,3.451-1.545,3.451-3.452 c0-1.907-1.545-3.452-3.451-3.452h-9.539C216.379,120.309,216.428,121.421,216.428,122.547z M150.586,126.115h8.813 c-0.103-1.173-0.156-2.363-0.156-3.568c0-1.126,0.049-2.238,0.139-3.335h-8.796c-1.906,0-3.452,1.545-3.452,3.452 C147.134,124.57,148.68,126.115,150.586,126.115z M161.296,109.88c0.804-2.386,1.826-4.638,3.041-6.722l-6.377-6.375 c-1.348-1.348-3.533-1.348-4.881,0c-1.348,1.348-1.348,3.533,0,4.881L161.296,109.88z M207.312,174.14 c-5.659-0.041-8.221-2.139-9.724-4.479c-1.236-1.968-1.586-4.251-1.665-5.609c3.154-2.164,5.417-5.529,6.124-9.441H173.33 c0.706,3.913,2.97,7.279,6.124,9.442c-0.077,1.358-0.429,3.643-1.665,5.608c-1.501,2.339-4.063,4.438-9.726,4.479 c-0.826,0-1.498,0.672-1.498,1.498c0,0.828,0.672,1.5,1.498,1.5c6.456,0.041,10.348-2.729,12.271-5.895 c1.232-1.994,1.757-4.059,1.979-5.666c1.663,0.66,3.475,1.028,5.374,1.031c1.9-0.003,3.714-0.371,5.378-1.033 c0.222,1.608,0.746,3.672,1.979,5.668c1.924,3.166,5.814,5.936,12.269,5.895c0.83,0,1.499-0.672,1.499-1.499 S208.143,174.14,207.312,174.14z M211.095,122.724c0-14.832-9.122-27.081-20.811-28.679v54.512h7.824 C205.798,143.821,211.095,134.024,211.095,122.724z M177.271,148.558h7.824V94.045c-11.688,1.597-20.811,13.847-20.811,28.679 C164.284,134.024,169.58,143.821,177.271,148.558z"/>
</svg>
