<?xml version="1.0" encoding="utf-8"?>
<svg xmlns="http://www.w3.org/2000/svg" viewBox="0 0 3 2">
<path fill="#039" d="M0,0H1V2H0Z"/>
<path fill="#FFF" d="M1,0H2V2H1Z"/>
<path fill="#F33" d="M2,0H3V2H2Z"/>
</svg>
